{
  "base_url": "/user/nicolaszds-tp_1-34c3myjw/",
  "hostname": "0.0.0.0",
  "notebook_dir": "/home/jovyan",
  "password": false,
  "pid": 25,
  "port": 8888,
  "secure": false,
  "sock": "",
  "token": "uVcd2zoyR-u5R2YiZyiASA",
  "url": "http://0.0.0.0:8888/user/nicolaszds-tp_1-34c3myjw/"
}